un-voting
…
un <- read_csv(here::here('Exercises', 'un-voting', 'data', 'unvoting.csv'))

Rows: 9120 Columns: 6
── Column specification ────────────────────────────────────────────────────────
Delimiter: ","
chr (2): CountryAbb, CountryName
dbl (4): Year, idealpoint, PctAgreeUS, PctAgreeRUSSIA

ℹ Use `spec()` to retrieve the full column specification for this data.
ℹ Specify the column types or set `show_col_types = FALSE` to quiet this message.

un

# A tibble: 9,120 × 6
    Year CountryAbb CountryName             idealpoint PctAgreeUS PctAgreeRUSSIA
   <dbl> <chr>      <chr>                        <dbl>      <dbl>          <dbl>
 1  1946 USA        United States of Ameri…       1.71          1          0.214
 2  1947 USA        United States of Ameri…       1.81          1          0.263
 3  1948 USA        United States of Ameri…       1.94          1          0.127
 4  1949 USA        United States of Ameri…       1.88          1          0.111
 5  1950 USA        United States of Ameri…       1.81          1          0.173
 6  1951 USA        United States of Ameri…       1.83          1          0.12 
 7  1952 USA        United States of Ameri…       1.90          1          0.143
 8  1953 USA        United States of Ameri…       1.69          1          0.2  
 9  1954 USA        United States of Ameri…       1.48          1          0.2  
10  1955 USA        United States of Ameri…       1.72          1          0.148
# ℹ 9,110 more rows
…
