nyc-flights-solutions
…
if (!("nycflights13" %in% installed.packages())) {
  install.packages("nycflights13")
}
library(nycflights13)
flights <- flights

flights

# A tibble: 336,776 × 19
    year month   day dep_time sched_dep_time dep_delay arr_time sched_arr_time
   <int> <int> <int>    <int>          <int>     <dbl>    <int>          <int>
 1  2013     1     1      517            515         2      830            819
 2  2013     1     1      533            529         4      850            830
 3  2013     1     1      542            540         2      923            850
 4  2013     1     1      544            545        -1     1004           1022
 5  2013     1     1      554            600        -6      812            837
 6  2013     1     1      554            558        -4      740            728
 7  2013     1     1      555            600        -5      913            854
 8  2013     1     1      557            600        -3      709            723
 9  2013     1     1      557            600        -3      838            846
10  2013     1     1      558            600        -2      753            745
# ℹ 336,766 more rows
# ℹ 11 more variables: arr_delay <dbl>, carrier <chr>, flight <int>,
#   tailnum <chr>, origin <chr>, dest <chr>, air_time <dbl>, distance <dbl>,
#   hour <dbl>, minute <dbl>, time_hour <dttm>
…
# A tibble: 1 × 1
      n
  <int>
1   365

Find all flights that arrived more than two hours late but didn’t leave late.

flights |>
  filter(dep_delay <= 0) |>
  filter(arr_delay >= 120)

# A tibble: 29 × 19
    year month   day dep_time sched_dep_time dep_delay arr_time sched_arr_time
   <int> <int> <int>    <int>          <int>     <dbl>    <int>          <int>
 1  2013     1    27     1419           1420        -1     1754           1550
 2  2013    10     7     1350           1350         0     1736           1526
 3  2013    10     7     1357           1359        -2     1858           1654
 4  2013    10    16      657            700        -3     1258           1056
 5  2013    11     1      658            700        -2     1329           1015
 6  2013     3    18     1844           1847        -3       39           2219
 7  2013     4    17     1635           1640        -5     2049           1845
 8  2013     4    18      558            600        -2     1149            850
 9  2013     4    18      655            700        -5     1213            950
10  2013     5    22     1827           1830        -3     2217           2010
# ℹ 19 more rows
# ℹ 11 more variables: arr_delay <dbl>, carrier <chr>, flight <int>,
#   tailnum <chr>, origin <chr>, dest <chr>, air_time <dbl>, distance <dbl>,
#   hour <dbl>, minute <dbl>, time_hour <dttm>
…
# A tibble: 1 × 1
  dest 
  <chr>
1 HNL  

Find all flights in the summer (June, July, August) that arrived on time.

flights |>
  filter(month >= 6, month <= 8) |>
  filter(arr_delay <= 0)

# A tibble: 46,701 × 19
    year month   day dep_time sched_dep_time dep_delay arr_time sched_arr_time
   <int> <int> <int>    <int>          <int>     <dbl>    <int>          <int>
 1  2013     6     1        2           2359         3      341            350
 2  2013     6     1      451            500        -9      624            640
 3  2013     6     1      506            515        -9      715            800
 4  2013     6     1      534            545       -11      800            829
 5  2013     6     1      539            540        -1      832            840
 6  2013     6     1      546            600       -14      850            910
 7  2013     6     1      551            600        -9      828            850
 8  2013     6     1      552            600        -8      647            655
 9  2013     6     1      553            600        -7      700            711
10  2013     6     1      554            600        -6      851            908
# ℹ 46,691 more rows
# ℹ 11 more variables: arr_delay <dbl>, carrier <chr>, flight <int>,
#   tailnum <chr>, origin <chr>, dest <chr>, air_time <dbl>, distance <dbl>,
#   hour <dbl>, minute <dbl>, time_hour <dttm>
…
origin_carrier <- flights |>
  group_by(origin, carrier) |>
  summarise(
    n_flights = n(),
    prop_delayed = mean(delayed_departure, na.rm  = TRUE)
  ) |>
  arrange(desc(prop_delayed))

`summarise()` has grouped output by 'origin'. You can override using the
`.groups` argument.

origin_carrier

# A tibble: 35 × 4
# Groups:   origin [3]
   origin carrier n_flights prop_delayed
   <chr>  <chr>       <int>        <dbl>
 1 LGA    WN           6087        0.545
 2 EWR    WN           6188        0.540
 3 LGA    FL           3260        0.519
 4 EWR    OO              6        0.5  
 5 LGA    F9            685        0.5  
 6 EWR    UA          46087        0.498
 7 JFK    VX           3596        0.470
 8 EWR    EV          43939        0.462
 9 JFK    9E          14651        0.439
10 LGA    YV            601        0.428
# ℹ 25 more rows

You want to compare the departure delay rate in origin_carrier to the airport departure delay rate and the carrier departure delay rate. While you’ll learn another way to do this in the Intro to Data Science course (joins), this can be accomplished by combining group_by() and mutate(). When combined with group_by(), mutate() performs operations on groups rather than rows. In other words, it functions similarily to summarise() but does not reduce the number of rows. For example, we can add a column with the total number of flights per origin airport with

origin_carrier |>
  group_by(origin) |>
  mutate(origin_flights = sum(n_flights))

# A tibble: 35 × 5
# Groups:   origin [3]
   origin carrier n_flights prop_delayed origin_flights
   <chr>  <chr>       <int>        <dbl>          <int>
 1 LGA    WN           6087        0.545         104662
 2 EWR    WN           6188        0.540         120835
 3 LGA    FL           3260        0.519         104662
 4 EWR    OO              6        0.5           120835
 5 LGA    F9            685        0.5           104662
 6 EWR    UA          46087        0.498         120835
 7 JFK    VX           3596        0.470         111279
 8 EWR    EV          43939        0.462         120835
 9 JFK    9E          14651        0.439         111279
10 LGA    YV            601        0.428         104662
# ℹ 25 more rows
…
