dplyr Row Exercises
…
# A tibble: 1 × 1
      n
  <int>
1   365

Find all flights that arrived more than two hours late but didn’t leave late.

flights |>
  filter(dep_delay <= 0) |>
  filter(arr_delay >= 120)

# A tibble: 29 × 19
    year month   day dep_time sched_dep_time dep_delay arr_time sched_arr_time
   <int> <int> <int>    <int>          <int>     <dbl>    <int>          <int>
 1  2013     1    27     1419           1420        -1     1754           1550
 2  2013    10     7     1350           1350         0     1736           1526
 3  2013    10     7     1357           1359        -2     1858           1654
 4  2013    10    16      657            700        -3     1258           1056
 5  2013    11     1      658            700        -2     1329           1015
 6  2013     3    18     1844           1847        -3       39           2219
 7  2013     4    17     1635           1640        -5     2049           1845
 8  2013     4    18      558            600        -2     1149            850
 9  2013     4    18      655            700        -5     1213            950
10  2013     5    22     1827           1830        -3     2217           2010
# ℹ 19 more rows
# ℹ 11 more variables: arr_delay <dbl>, carrier <chr>, flight <int>,
#   tailnum <chr>, origin <chr>, dest <chr>, air_time <dbl>, distance <dbl>,
#   hour <dbl>, minute <dbl>, time_hour <dttm>
…
# A tibble: 1 × 1
  dest 
  <chr>
1 HNL  

Find all flights in the summer (June, July, August) that arrived on time.

flights |>
  filter(month >= 6, month <= 8) |>
  filter(arr_delay <= 0)

# A tibble: 46,701 × 19
    year month   day dep_time sched_dep_time dep_delay arr_time sched_arr_time
   <int> <int> <int>    <int>          <int>     <dbl>    <int>          <int>
 1  2013     6     1        2           2359         3      341            350
 2  2013     6     1      451            500        -9      624            640
 3  2013     6     1      506            515        -9      715            800
 4  2013     6     1      534            545       -11      800            829
 5  2013     6     1      539            540        -1      832            840
 6  2013     6     1      546            600       -14      850            910
 7  2013     6     1      551            600        -9      828            850
 8  2013     6     1      552            600        -8      647            655
 9  2013     6     1      553            600        -7      700            711
10  2013     6     1      554            600        -6      851            908
# ℹ 46,691 more rows
# ℹ 11 more variables: arr_delay <dbl>, carrier <chr>, flight <int>,
#   tailnum <chr>, origin <chr>, dest <chr>, air_time <dbl>, distance <dbl>,
#   hour <dbl>, minute <dbl>, time_hour <dttm>
…
leaders <- read_csv("data/leaders.csv")

Rows: 250 Columns: 11
── Column specification ────────────────────────────────────────────────────────
Delimiter: ","
chr (3): country, leadername, result
dbl (8): year, age, politybefore, polityafter, interwarbefore, interwarafter...

ℹ Use `spec()` to retrieve the full column specification for this data.
ℹ Specify the column types or set `show_col_types = FALSE` to quiet this message.

leaders

# A tibble: 250 × 11
    year country     leadername      age politybefore polityafter interwarbefore
   <dbl> <chr>       <chr>         <dbl>        <dbl>       <dbl>          <dbl>
 1  1929 Afghanistan Habibullah G…    39           -6       -6                 0
 2  1933 Afghanistan Nadir Shah       53           -6       -7.33              0
 3  1934 Afghanistan Hashim Khan      50           -6       -8                 0
 4  1924 Albania     Zogu             29            0       -9                 0
 5  1931 Albania     Zogu             36           -9       -9                 0
 6  1968 Algeria     Boumedienne      41           -9       -9                 0
 7  1992 Algeria     Boudiaf          73           -2       -5.67              0
 8  1908 Argentina   Alcorta          48            1        1                 0
 9  1916 Argentina   de la Plaza      76            2        2                 0
10  1929 Argentina   Irigoyen         77            2       -8                 0
# ℹ 240 more rows
# ℹ 4 more variables: interwarafter <dbl>, civilwarbefore <dbl>,
#   civilwarafter <dbl>, result <chr>
…
leaders |>
  count()

# A tibble: 1 × 1
      n
  <int>
1   250

How many countries experienced at least one leader assassination attempt?

leaders |>
  count(country)

# A tibble: 88 × 2
   country         n
   <chr>       <int>
 1 Afghanistan     3
 2 Albania         2
 3 Algeria         2
 4 Argentina       5
 5 Australia       2
 6 Austria         4
 7 Belgium         1
 8 Bhutan          1
 9 Bolivia         4
10 Brazil          1
# ℹ 78 more rows
…
# A tibble: 1 × 1
  attempts_per_year_per_country
                          <dbl>
1                        0.0231

Create a new variable called success that is equal to 1 if a leader dies from the attack at any point and 0 if the leader survives (you’ll need to look at the possible values for the result variable).

Hint: You can use %in% to see if a value is in a vector. For example,

leaders |>
  mutate(country_starts_with_A = country %in% c("Afghanistan", "Albania", "Algeria", "Argentina", "Australia", "Austria")) |>
  distinct(country, country_starts_with_A)

# A tibble: 88 × 2
   country     country_starts_with_A
   <chr>       <lgl>                
 1 Afghanistan TRUE                 
 2 Albania     TRUE                 
 3 Algeria     TRUE                 
 4 Argentina   TRUE                 
 5 Australia   TRUE                 
 6 Austria     TRUE                 
 7 Belgium     FALSE                
 8 Bhutan      FALSE                
 9 Bolivia     FALSE                
10 Brazil      FALSE                
# ℹ 78 more rows
…
